ALEPH_1991_S2435284
ALEPH_1996_S3196992
ALEPH_1996_S3486095
ALEPH_2004_S5765862
ATLAS_2010_S8591806
BELLE_2006_S6265367
CDF_1988_S1865951
CDF_1990_S2089246
CDF_1991_S2313472
CDF_1994_S2952106
CDF_1996_S3108457
CDF_1996_S3349578
CDF_1996_S3418421
CDF_1997_S3541940
CDF_1998_S3618439
CDF_2000_S4155203
CDF_2000_S4266730
CDF_2001_S4517016
CDF_2001_S4563131
CDF_2001_S4751469
CDF_2002_S4796047
CDF_2004_S5839831
CDF_2005_S6080774
CDF_2005_S6217184
CDF_2006_S6450792
CDF_2006_S6653332
CDF_2007_S7057202
CDF_2008_LEADINGJETS
CDF_2008_NOTE_9351
CDF_2008_S7540469
CDF_2008_S7541902
CDF_2008_S7782535
CDF_2008_S7828950
CDF_2008_S8093652
CDF_2008_S8095620
CDF_2009_S8057893
CDF_2009_S8233977
CDF_2009_S8383952
CDF_2009_S8436959
D0_1996_S3214044
D0_1996_S3324664
D0_1998_S3711838
D0_2001_S4674421
D0_2004_S5992206
D0_2006_S6438750
D0_2007_S7075677
D0_2008_S6879055
D0_2008_S7554427
D0_2008_S7662670
D0_2008_S7719523
D0_2008_S7837160
D0_2008_S7863608
D0_2009_S8202443
D0_2009_S8320160
D0_2009_S8349509
D0_2010_S8566488
D0_2010_S8570965
DELPHI_1995_S3137023
DELPHI_1996_S3430090
DELPHI_2002_069_CONF_603
DELPHI_2003_WUD_03_11
E735_1998_S3905616
ExampleAnalysis
H1_1994_S2919893
H1_1995_S3167097
H1_2000_S4129130
JADE_OPAL_2000_S4300807
MC_DIJET
MC_DIPHOTON
MC_JETS
MC_JetAnalysis
MC_LEADINGJETS
MC_PHOTONJETS
MC_PHOTONJETUE
MC_SUSY
MC_TTBAR
MC_WJETS
MC_ZJETS
OPAL_1998_S3780481
OPAL_2004_S6132243
PDG_Hadron_Multiplicities
PDG_Hadron_Multiplicities_Ratios
SFM_1984_S1178091
STAR_2006_S6500200
STAR_2006_S6860818
STAR_2006_S6870392
STAR_2008_S7993412
STAR_2009_UE_HELEN
UA1_1990_S2044935
UA5_1982_S875503
UA5_1986_S1583476
UA5_1988_S1867512
UA5_1989_S1926373
ZEUS_2001_S4815815
