ALEPH_1991_S2435284
ALEPH_1996_S3196992
ALEPH_1996_S3486095
ALEPH_2004_S5765862
ALICE_2010_S8624100
ALICE_2010_S8625980
ALICE_2010_S8706239
ALICE_2011_S8909580
ALICE_2011_S8945144
ATLAS_2010_CONF_2010_049
ATLAS_2010_S8591806
ATLAS_2010_S8817804
ATLAS_2010_S8894728
ATLAS_2010_S8914702
ATLAS_2010_S8918562
ATLAS_2010_S8919674
ATLAS_2011_CONF_2011_090
ATLAS_2011_CONF_2011_098
ATLAS_2011_I919017
ATLAS_2011_I925932
ATLAS_2011_S8924791
ATLAS_2011_S8971293
ATLAS_2011_S8983313
ATLAS_2011_S8994773
ATLAS_2011_S9002537
ATLAS_2011_S9019561
ATLAS_2011_S9041966
ATLAS_2011_S9108483
ATLAS_2011_S9120807
ATLAS_2011_S9126244
ATLAS_2011_S9128077
ATLAS_2011_S9131140
ATLAS_2011_S9212183
ATLAS_2011_S9225137
BELLE_2006_S6265367
CDF_1988_S1865951
CDF_1990_S2089246
CDF_1993_S2742446
CDF_1994_S2952106
CDF_1996_S3108457
CDF_1996_S3349578
CDF_1996_S3418421
CDF_1997_S3541940
CDF_1998_S3618439
CDF_2000_S4155203
CDF_2000_S4266730
CDF_2001_S4517016
CDF_2001_S4563131
CDF_2001_S4751469
CDF_2002_S4796047
CDF_2004_S5839831
CDF_2005_S6080774
CDF_2005_S6217184
CDF_2006_S6450792
CDF_2006_S6653332
CDF_2007_S7057202
CDF_2008_LEADINGJETS
CDF_2008_NOTE_9351
CDF_2008_S7540469
CDF_2008_S7541902
CDF_2008_S7782535
CDF_2008_S7828950
CDF_2008_S8093652
CDF_2008_S8095620
CDF_2009_NOTE_9936
CDF_2009_S8057893
CDF_2009_S8233977
CDF_2009_S8383952
CDF_2009_S8436959
CDF_2010_S8591881_DY
CDF_2010_S8591881_QCD
CMS_2010_S8547297
CMS_2010_S8656010
CMS_2011_S8884919
CMS_2011_S8950903
CMS_2011_S8957746
CMS_2011_S8968497
CMS_2011_S8978280
CMS_2011_S9086218
CMS_2011_S9088458
CMS_2011_S9120041
D0_1996_S3214044
D0_1996_S3324664
D0_2000_S4480767
D0_2001_S4674421
D0_2004_S5992206
D0_2006_S6438750
D0_2007_S7075677
D0_2008_S6879055
D0_2008_S7554427
D0_2008_S7662670
D0_2008_S7719523
D0_2008_S7837160
D0_2008_S7863608
D0_2009_S8202443
D0_2009_S8320160
D0_2009_S8349509
D0_2010_S8566488
D0_2010_S8570965
D0_2010_S8671338
D0_2010_S8821313
DELPHI_1995_S3137023
DELPHI_1996_S3430090
DELPHI_2002_069_CONF_603
DELPHI_2003_WUD_03_11
E735_1998_S3905616
EXAMPLE
H1_1994_S2919893
H1_1995_S3167097
H1_2000_S4129130
JADE_1998_S3612880
JADE_OPAL_2000_S4300807
LHCB_2010_S8758301
MC_DIJET
MC_DIPHOTON
MC_GENERIC
MC_HJETS
MC_JETS
MC_JetAnalysis
MC_LEADINGJETS
MC_PHOTONJETS
MC_PHOTONJETUE
MC_SUSY
MC_TTBAR
MC_VH2BB
MC_WJETS
MC_WPOL
MC_WWJETS
MC_XS
MC_ZJETS
MC_ZZJETS
OPAL_1993_S2692198
OPAL_1998_S3780481
OPAL_2001_S4553896
OPAL_2004_S6132243
PDG_HADRON_MULTIPLICITIES
PDG_HADRON_MULTIPLICITIES_RATIOS
SFM_1984_S1178091
STAR_2006_S6500200
STAR_2006_S6860818
STAR_2006_S6870392
STAR_2008_S7869363
STAR_2008_S7993412
STAR_2009_UE_HELEN
TASSO_1990_S2148048
UA1_1990_S2044935
UA5_1982_S875503
UA5_1986_S1583476
UA5_1987_S1640666
UA5_1988_S1867512
UA5_1989_S1926373
ZEUS_2001_S4815815
